<svg width="25" height="24" viewBox="0 0 25 24" fill="none" xmlns="http://www.w3.org/2000/svg">
<path d="M11.8926 8.75C11.0306 8.75 10.204 9.09241 9.59448 9.7019C8.98499 10.3114 8.64258 11.138 8.64258 12C8.64258 12.862 8.98499 13.6886 9.59448 14.2981C10.204 14.9076 11.0306 15.25 11.8926 15.25C12.7545 15.25 13.5812 14.9076 14.1907 14.2981C14.8002 13.6886 15.1426 12.862 15.1426 12C15.1426 11.138 14.8002 10.3114 14.1907 9.7019C13.5812 9.09241 12.7545 8.75 11.8926 8.75Z" fill="#9F9F9F"/>
<path fill-rule="evenodd" clip-rule="evenodd" d="M6.66338 3.08194C10.1394 2.69664 13.6474 2.69664 17.1234 3.08194C19.0224 3.29394 20.5534 4.78894 20.7764 6.69494C21.1886 10.2196 21.1886 13.7803 20.7764 17.3049C20.5534 19.2109 19.0224 20.7059 17.1244 20.9189C13.648 21.3044 10.1397 21.3044 6.66338 20.9189C4.76438 20.7059 3.23338 19.2109 3.01038 17.3059C2.5981 13.781 2.5981 10.2199 3.01038 6.69494C3.23338 4.78894 4.76438 3.29394 6.66338 3.08194ZM16.8934 5.99994C16.6282 5.99994 16.3738 6.1053 16.1863 6.29284C15.9987 6.48037 15.8934 6.73473 15.8934 6.99994C15.8934 7.26516 15.9987 7.51951 16.1863 7.70705C16.3738 7.89459 16.6282 7.99994 16.8934 7.99994C17.1586 7.99994 17.4129 7.89459 17.6005 7.70705C17.788 7.51951 17.8934 7.26516 17.8934 6.99994C17.8934 6.73473 17.788 6.48037 17.6005 6.29284C17.4129 6.1053 17.1586 5.99994 16.8934 5.99994ZM7.14338 11.9999C7.14338 10.7402 7.64382 9.53198 8.53462 8.64119C9.42542 7.75039 10.6336 7.24994 11.8934 7.24994C13.1532 7.24994 14.3613 7.75039 15.2521 8.64119C16.1429 9.53198 16.6434 10.7402 16.6434 11.9999C16.6434 13.2597 16.1429 14.4679 15.2521 15.3587C14.3613 16.2495 13.1532 16.7499 11.8934 16.7499C10.6336 16.7499 9.42542 16.2495 8.53462 15.3587C7.64382 14.4679 7.14338 13.2597 7.14338 11.9999Z" fill="#9F9F9F"/>
</svg>
