<svg width="39" height="46" viewBox="0 0 39 46" fill="none" xmlns="http://www.w3.org/2000/svg">
<path d="M38.5328 16.5021C36.2852 15.1669 34.1398 13.8931 31.9944 12.6193C27.8738 10.1683 23.7618 7.70861 19.6497 5.24888C19.4198 5.10833 19.2325 5.0644 18.9686 5.22253C14.9247 7.63833 10.8807 10.0453 6.83676 12.4524C6.74311 12.5139 6.65798 12.5841 6.51324 12.6896C7.66258 13.3748 8.79488 13.9897 9.85908 14.7013C10.4976 15.1317 10.9829 15.1141 11.6384 14.7013C14.0307 13.2166 16.4656 11.8023 18.875 10.3528C19.1644 10.1771 19.3858 10.1595 19.6923 10.344C25.805 13.9985 31.9178 17.6529 38.039 21.2898C38.4051 21.5006 38.5584 21.7203 38.5498 22.1683C38.5243 23.6266 38.5413 25.0848 38.5413 26.6397C38.2944 26.5079 38.0986 26.4201 37.9113 26.3059C31.8497 22.6954 25.788 19.0848 19.7348 15.4567C19.3943 15.2547 19.1644 15.2635 18.8409 15.4567C17.7256 16.142 16.6018 16.8008 15.478 17.4685C15.3503 17.5475 15.2311 17.6266 15.0438 17.7496C16.1336 18.3996 17.1808 19.0321 18.2279 19.6559C24.86 23.609 31.5006 27.5621 38.1412 31.5065C38.4392 31.6822 38.5754 31.8666 38.5498 32.2268C38.5158 32.6924 38.5073 33.158 38.5498 33.6148C38.6009 34.1331 38.4136 34.4054 37.9794 34.6602C35.1189 36.3381 32.2668 38.0423 29.4148 39.7378C26.1881 41.6616 22.9615 43.5767 19.7519 45.5181C19.4283 45.7114 19.19 45.7377 18.8579 45.5269C12.7452 41.8637 6.63243 38.218 0.502654 34.5899C0.145083 34.3791 0.0344067 34.1507 0.0429203 33.7378C0.068461 32.2619 0.0514339 30.7861 0.0514339 29.2224C0.272787 29.3454 0.443059 29.4333 0.61333 29.5299C6.71757 33.1668 12.8218 36.7949 18.926 40.4318C19.1559 40.5635 19.3262 40.6426 19.5986 40.4757C23.6511 38.0511 27.7206 35.6353 31.773 33.2195C31.8582 33.1668 31.9263 33.1053 32.071 32.9999C31.4325 32.6133 30.8365 32.2532 30.2406 31.9018C23.8809 28.1068 17.5128 24.3205 11.1531 20.5167C10.8637 20.3411 10.6508 20.3059 10.3444 20.4992C9.23759 21.1932 8.10528 21.852 6.98149 22.5197C6.84527 22.5987 6.70905 22.6954 6.50473 22.8447C12.2088 26.2444 17.8533 29.609 23.5659 33.0174C22.5954 33.5972 21.693 34.1419 20.7905 34.6777C20.3052 34.9676 19.8029 35.4596 19.3092 35.4596C18.8154 35.4596 18.3131 34.9852 17.8278 34.6953C12.0641 31.2693 6.30892 27.8344 0.545221 24.4172C0.179137 24.1976 0.00886533 23.9779 0.0429196 23.5387C0.0854875 22.8886 -0.135866 22.1156 0.145083 21.6236C0.417517 21.1317 1.1582 20.9033 1.70307 20.5782C3.14186 19.7173 4.58066 18.8652 6.01945 18.0043C6.14716 17.9252 6.26635 17.8462 6.45365 17.7232C5.50013 17.161 4.6062 16.6251 3.70376 16.0805C2.60551 15.4304 1.51577 14.7715 0.417518 14.1302C0.153597 13.9809 0.0344064 13.8052 0.0514336 13.4802C0.0769743 12.9179 0.0769743 12.3469 0.0514336 11.7847C0.0344064 11.4597 0.16211 11.2928 0.417518 11.1434C6.58135 7.48899 12.7537 3.80818 18.926 0.118594C19.19 -0.0395313 19.3858 -0.0395313 19.6497 0.118594C25.788 3.79061 31.9348 7.46264 38.0901 11.1171C38.4221 11.3104 38.5499 11.5212 38.5413 11.9165C38.5158 13.2518 38.5328 14.5958 38.5328 15.9311C38.5328 16.0892 38.5328 16.2474 38.5328 16.4933V16.5021Z" fill="#67BD23"/>
</svg>
